{
  "routes": [
    {
      "method": "GET",
      "path": "/demo-index-pages",
      "handler": "demo-index-page.find",
      "config": {
        "policies": []
      }
    },
    {
      "method": "GET",
      "path": "/demo-index-pages/count",
      "handler": "demo-index-page.count",
      "config": {
        "policies": []
      }
    },
    {
      "method": "GET",
      "path": "/demo-index-pages/:id",
      "handler": "demo-index-page.findOne",
      "config": {
        "policies": []
      }
    },
    {
      "method": "POST",
      "path": "/demo-index-pages",
      "handler": "demo-index-page.create",
      "config": {
        "policies": []
      }
    },
    {
      "method": "PUT",
      "path": "/demo-index-pages/:id",
      "handler": "demo-index-page.update",
      "config": {
        "policies": []
      }
    },
    {
      "method": "DELETE",
      "path": "/demo-index-pages/:id",
      "handler": "demo-index-page.delete",
      "config": {
        "policies": []
      }
    }
  ]
}
